/* XPM */
static const char* kDungeonXPM[] = {
"32 32 257 2",
"  	c None",
". 	c #151515",
"+ 	c #261414",
"@ 	c #FF4343",
"# 	c #A74444",
"$ 	c #AC5353",
"% 	c #ADADAD",
"& 	c #898383",
"* 	c #CD5555",
"= 	c #565454",
"- 	c #EA4A4A",
"; 	c #E22323",
"> 	c #ECECEC",
", 	c #A22828",
"' 	c #623232",
") 	c #F4F4F4",
"! 	c #FFB3B3",
"~ 	c #D2D2D2",
"{ 	c #FEA4A4",
"] 	c #FF8C8C",
"^ 	c #774F4F",
"/ 	c #BEBEBE",
"( 	c #665E5E",
"_ 	c #FE7373",
": 	c #B1B1B1",
"< 	c #7C7878",
"[ 	c #807D7D",
"} 	c #34191A",
"| 	c #882222",
"1 	c #C44E4E",
"2 	c #D87C7C",
"3 	c #983737",
"4 	c #FF7777",
"5 	c #6B3C3C",
"6 	c #332626",
"7 	c #7B5F5F",
"8 	c #C2C2C2",
"9 	c #9D1E1E",
"0 	c #AF7777",
"a 	c #8E6B6B",
"b 	c #D36565",
"c 	c #A31B1B",
"d 	c #BBBBBB",
"e 	c #7A7373",
"f 	c #AC1D1D",
"g 	c #844A4A",
"h 	c #FF3030",
"i 	c #CB2121",
"j 	c #FF2D2D",
"k 	c #EA2A2A",
"l 	c #7E2424",
"m 	c #594F31",
"n 	c #C21E1E",
"o 	c #B31E1E",
"p 	c #683535",
"q 	c #B91E1E",
"r 	c #BB2626",
"s 	c #593535",
"t 	c #BE8484",
"u 	c #FFB9B9",
"v 	c #C9C9C9",
"w 	c #FF9494",
"x 	c #FF5B5B",
"y 	c #E3E3E3",
"z 	c #9A2424",
"A 	c #5E4C4C",
"B 	c #6E4B4B",
"C 	c #E7E7E7",
"D 	c #543D3D",
"E 	c #914040",
"F 	c #6C6A6A",
"G 	c #837373",
"H 	c #4D3B3B",
"I 	c #180D0D",
"J 	c #821E1E",
"K 	c #D52222",
"L 	c #FF5353",
"M 	c #7B1A1A",
"N 	c #FF6A6A",
"O 	c #D12121",
"P 	c #FF3535",
"Q 	c #FF3D3E",
"R 	c #B6B6B6",
"S 	c #F73131",
"T 	c #8D8989",
"U 	c #751B1B",
"V 	c #A2A2A2",
"W 	c #F53C3C",
"X 	c #4A4442",
"Y 	c #AC3737",
"Z 	c #5A1515",
"` 	c #6C4444",
" .	c #BA4545",
"..	c #F3AAAA",
"+.	c #726262",
"@.	c #FF4F4F",
"#.	c #B42123",
"$.	c #262525",
"%.	c #636463",
"&.	c #664848",
"*.	c #5E2B2B",
"=.	c #C17575",
"-.	c #D92222",
";.	c #4B2424",
">.	c #EFB618",
",.	c #DDDDDD",
"'.	c #E52929",
").	c #260B0B",
"!.	c #F32727",
"~.	c #C62020",
"{.	c #514444",
"].	c #CC7373",
"^.	c #711313",
"/.	c #F12A2A",
"(.	c #9A9999",
"_.	c #FD6565",
":.	c #44380E",
"<.	c #521212",
"[.	c #643939",
"}.	c #681919",
"|.	c #8A5555",
"1.	c #7C3D3D",
"2.	c #CC9C1C",
"3.	c #4C1313",
"4.	c #9E5A5A",
"5.	c #481E1E",
"6.	c #BE1E1E",
"7.	c #838282",
"8.	c #888787",
"9.	c #DB5858",
"0.	c #CB1F1F",
"a.	c #FE2A2A",
"b.	c #6A2323",
"c.	c #DE2626",
"d.	c #F62929",
"e.	c #C53434",
"f.	c #480C0C",
"g.	c #8C1B1B",
"h.	c #713232",
"i.	c #FF8080",
"j.	c #380D0D",
"k.	c #622222",
"l.	c #701717",
"m.	c #562C2C",
"n.	c #421313",
"o.	c #FF393A",
"p.	c #E92525",
"q.	c #642B2B",
"r.	c #7D6B6B",
"s.	c #F4B2B2",
"t.	c #C22020",
"u.	c #7C3535",
"v.	c #D4D4D4",
"w.	c #7C1414",
"x.	c #932424",
"y.	c #F34343",
"z.	c #FEADAD",
"A.	c #B62929",
"B.	c #B43838",
"C.	c #FF8787",
"D.	c #634545",
"E.	c #F52E2E",
"F.	c #941B1B",
"G.	c #473D3D",
"H.	c #C36F6F",
"I.	c #979595",
"J.	c #442121",
"K.	c #F82B2B",
"L.	c #4F3535",
"M.	c #969292",
"N.	c #835151",
"O.	c #A8A7A7",
"P.	c #5E2323",
"Q.	c #BB2B2B",
"R.	c #E1E1E1",
"S.	c #520C0C",
"T.	c #DD2323",
"U.	c #FF4848",
"V.	c #313030",
"W.	c #706E6E",
"X.	c #9E9D9D",
"Y.	c #543636",
"Z.	c #924F4F",
"`.	c #FF9C9C",
" +	c #939191",
".+	c #4E1919",
"++	c #421C17",
"@+	c #631212",
"#+	c #C12727",
"$+	c #8A7D7D",
"%+	c #5A3838",
"&+	c #681D1D",
"*+	c #755B5B",
"=+	c #868181",
"-+	c #492F2F",
";+	c #0E0404",
">+	c #D72626",
",+	c #600F0F",
"'+	c #532020",
")+	c #101111",
"!+	c #E4E4E4",
"~+	c #FFBEBE",
"{+	c #A92F30",
"]+	c #861818",
"^+	c #E8F066",
"/+	c #AB7811",
"(+	c #F94040",
"_+	c #C62424",
":+	c #FFFF48",
"<+	c #908E8E",
"[+	c #F73030",
"}+	c #F83535",
"|+	c #6B6A5D",
"1+	c #6A2D2D",
"2+	c #881414",
"3+	c #F49D9D",
"4+	c #EBACAC",
"5+	c #F47A7A",
"6+	c #C6C6C6",
"7+	c #443333",
"8+	c #604C14",
"9+	c #71723C",
"0+	c #A88D1B",
"a+	c #7A6767",
"b+	c #D9AA1B",
"c+	c #B8B7B7",
"d+	c #981919",
"e+	c #601E20",
"f+	c #6F1219",
"g+	c #715454",
"h+	c #E7E635",
"i+	c #F84848",
"j+	c #F46E6E",
"k+	c #D89F9F",
"l+	c #D12525",
"m+	c #9D9B9B",
"n+	c #A28282",
"o+	c #6D6363",
"p+	c #E3CD26",
"q+	c #9E2B2B",
"r+	c #5A1C1C",
"s+	c #CA7E7E",
"t+	c #5B4444",
"u+	c #584E4E",
"v+	c #C05757",
"w+	c #1D1E1E",
"x+	c #806013",
"y+	c #DE2B2B",
"z+	c #8F2828",
"A+	c #989797",
"B+	c #9C6565",
"C+	c #520F12",
"D+	c #402F30",
"E+	c #7E5A5A",
"F+	c #8B5B5B",
"G+	c #C72F2F",
"H+	c #FFFFFF",
"                                                                ",
"[ ( ( ( < ) / [ [ [ [ {.s Y.H s s s H H s s Y.G.J.J.;.D+7+-+-+= ",
".+6.6.f n.v +.f f o ]+l.K o U i ~.~.<.g.n 6.c <.q o q Z M o #.P.",
"*.O O q j.8 r.O K -.c ^.T.q ^.O 0.i f.2+0.n c f.q q 6.S.w.o q q.",
"' K K 6.j./ G O -.T.c M p.t.J c.K K Z F.O i f Z t.6.t.Z ]+q q q.",
"' K -.n j.d G c.p.p.t.} p [.D p p p H %+p [.[.{.[.[.' } 9 f f *.",
"u+n.j.j.I v & Z Z S.<.V.!+~ ~ ~ ,.v.~ ~ ~ c+: : % / ) A+I ;+I X ",
"&.#.o f j.d =+z 9 d+g.w+A b.b.k.6 P.k.k.5.r+M U U '+> <+U w.]+%+",
"B !.a.!.f.: $+a.j j /.I 1+h j '.n.'././.F.c p.-.; J R.8.f n n ' ",
"B d.a.d.3.% & E.h h k )+h.h j k j.'./.d.d+d+; O -.J y 8.f 6.6.' ",
"g+j j a.3.% T P P P S )+p }+[+k n.'.k >+M g.; ; ; | y & #.0.i p ",
"o+}.@+@++ : M.l | M U $.X n.j.n.+ D.} D+X .+]+F., k.C  +3.S.<.D ",
"+.#+#+#+3.O.I.q+, , z . %+Q.Q.A.6 %.8+m W.++d+c f &+C 8.Z ,+@+D ",
"a+P o.P Z V M.(+@ @ (+I ' @ Q o.j.x+/+2.:.C+k !.!.| y =+q K O 5 ",
"r.}+o.o.}.(.A+- U.U.y.I ' U.@ Q ++p+b+2.:.f+K./.!.| y 7.q 0.~.5 ",
"e W Q Q &+X.m+- L L @.+ L.Y Y {++ ^+:+>.:.#.h K.j x.y [ t.-.O 5 ",
"X.5.5.5.I : c+'+q.h.q.6 v R R R V 9+h+0+X e+l.^.l '+C (.}.^.l.A ",
"A+k.b.b.n.T 8 J.;.;.5.. R.        ~ |+(./ z y+c.T.J !+8.I ;+;+%.",
"=+i+@.L J 8.O.9.N N _.} v.              d A.P j j x.y < f ~.n ` ",
"T - L x | 7.% b 4 4 _ } v.              / A.P h j z y [ l+-.O ` ",
" +- x _.z+[ : b C.C.i.J.d C C > ) C C C % {+}+[+E.x.y < >+-.O ` ",
"(.3 # # '+7.c+Z.H.].H.} )+)+)+. $.. . )+. + + ).} } ) [ _+O ~.B ",
"V u.E E e+e d [.N.F+N.L.4.$ $ *.m. .B.{+.+x.z 9 9 b.C < <.S.C+A ",
"V 9._ i.3 W.R s+! z.{ a `.w ] Z.g N x @.U W Q P P , y e i O ~.B ",
"O.* 4 i.3 F / t ~+u z.a { `.w Z.g N x @.b.W Q P P , !+G c.; K B ",
"O.* i.] # W.,.A 7 7 *+H 0 =.=.5 m.v+1  .*.B.e.G+G+l ) $+'.; -.^ ",
"/ m.N.|.J.V.%.= = = = V.. . w+w+w+. $.. . )+. )+)+w+F G.r n q g+",
"8 ' g |.P.+ + + + I + + + I + ).).I I ).).).I I ).f.).I ).).).u+",
"d v+] w 4.0 ..s.k+a s...3+B ].5+j+ .J.- y.W | A.E.K.q ,+-.O i 5 ",
"8 $ i.] B+t ! u 4+n+~+! { E+2 i._ 1 ;.@.U.@ | #+h j 6.,+!.; T.5 ",
"6+$ C.w 4.0 ! u ..a u ! { ^ ].i._ * ;.@.U.@ z+G+P h _+l.d.p.; 5 ",
",.D.g N.t+A 7 7 *+{.7 7 E+{.&.^ g ` {.1.1.1.s p u.u.p Y.h.h.h.+."};
