/* XPM */
static const char* kHouseLow_xpm[] = {
"16 16 257 2",
"  	c None",
". 	c #000000",
"+ 	c #FFFFFF",
"@ 	c #828283",
"# 	c #87888B",
"$ 	c #86878A",
"% 	c #8A8C91",
"& 	c #87898D",
"* 	c #848587",
"= 	c #0B3A90",
"- 	c #0C3582",
"; 	c #123678",
"> 	c #132F64",
", 	c #15336A",
"' 	c #1D2D4A",
") 	c #232B38",
"! 	c #8A8D92",
"~ 	c #888A8D",
"{ 	c #898C90",
"] 	c #858789",
"^ 	c #858687",
"/ 	c #838485",
"( 	c #828384",
"_ 	c #7F8081",
": 	c #8C9297",
"< 	c #818384",
"[ 	c #818A8D",
"} 	c #7E8486",
"| 	c #868C8E",
"1 	c #858B8D",
"2 	c #858889",
"3 	c #838687",
"4 	c #828586",
"5 	c #7F8283",
"6 	c #82898B",
"7 	c #81888A",
"8 	c #828A8C",
"9 	c #808485",
"0 	c #7F8384",
"a 	c #858A8B",
"b 	c #84898A",
"c 	c #838889",
"d 	c #828788",
"e 	c #808586",
"f 	c #818788",
"g 	c #868C8D",
"h 	c #818282",
"i 	c #352B0C",
"j 	c #261B00",
"k 	c #2F2000",
"l 	c #2A1D00",
"m 	c #382600",
"n 	c #362400",
"o 	c #332200",
"p 	c #686256",
"q 	c #6A665E",
"r 	c #252422",
"s 	c #7C7B79",
"t 	c #714800",
"u 	c #704700",
"v 	c #694300",
"w 	c #644000",
"x 	c #603D00",
"y 	c #5A3900",
"z 	c #482E00",
"A 	c #3F2800",
"B 	c #3A2500",
"C 	c #382400",
"D 	c #362300",
"E 	c #352200",
"F 	c #332100",
"G 	c #2C1C00",
"H 	c #342305",
"I 	c #402F10",
"J 	c #463517",
"K 	c #322714",
"L 	c #493B21",
"M 	c #51442D",
"N 	c #574B36",
"O 	c #5B5242",
"P 	c #754A00",
"Q 	c #6F4600",
"R 	c #6C4400",
"S 	c #663F00",
"T 	c #432A00",
"U 	c #352100",
"V 	c #311F00",
"W 	c #2E1D00",
"X 	c #382302",
"Y 	c #261A06",
"Z 	c #6A645A",
"` 	c #603900",
" .	c #5B3600",
"..	c #543300",
"+.	c #4F3000",
"@.	c #362000",
"#.	c #331E00",
"$.	c #221400",
"%.	c #392506",
"&.	c #2B241A",
"*.	c #3A2100",
"=.	c #392100",
"-.	c #341E00",
";.	c #321D00",
">.	c #311C00",
",.	c #402707",
"'.	c #311A00",
").	c #2E1800",
"!.	c #2A1500",
"~.	c #777573",
"{.	c #7D7C7B",
"].	c #2D1600",
"^.	c #2F1500",
"/.	c #542E0F",
"(.	c #4D2D11",
"_.	c #736C66",
":.	c #331600",
"<.	c #5E3616",
"[.	c #2F1300",
"}.	c #61361E",
"|.	c #76716E",
"1.	c #6A3B22",
"2.	c #7D7977",
"3.	c #82452C",
"4.	c #7F7A78",
"5.	c #763A26",
"6.	c #884732",
"7.	c #8C4A35",
"8.	c #93523E",
"9.	c #6C5C57",
"0.	c #73301E",
"a.	c #5A2719",
"b.	c #5D2B1D",
"c.	c #5F2C1E",
"d.	c #602E20",
"e.	c #592B1E",
"f.	c #83402E",
"g.	c #7A3C2B",
"h.	c #864331",
"i.	c #763B2B",
"j.	c #613124",
"k.	c #884533",
"l.	c #613225",
"m.	c #844533",
"n.	c #804231",
"o.	c #633326",
"p.	c #824433",
"q.	c #633427",
"r.	c #5C3024",
"s.	c #864735",
"t.	c #653528",
"u.	c #603326",
"v.	c #854735",
"w.	c #613427",
"x.	c #8B4A38",
"y.	c #864836",
"z.	c #854736",
"A.	c #6A392B",
"B.	c #AB5C46",
"C.	c #824635",
"D.	c #8D4D3A",
"E.	c #854837",
"F.	c #7C4333",
"G.	c #753F30",
"H.	c #5F3327",
"I.	c #7F4535",
"J.	c #8F4F3C",
"K.	c #814636",
"L.	c #5D3327",
"M.	c #7B4334",
"N.	c #8A4C3B",
"O.	c #884B3A",
"P.	c #8A4D3C",
"Q.	c #9C5946",
"R.	c #7D4B3D",
"S.	c #603F36",
"T.	c #6C534C",
"U.	c #7E6760",
"V.	c #6F615D",
"W.	c #692D1E",
"X.	c #793523",
"Y.	c #562519",
"Z.	c #5B281B",
"`.	c #813A29",
" +	c #5A291D",
".+	c #7D3A29",
"++	c #9A4733",
"@+	c #733626",
"#+	c #84402F",
"$+	c #824130",
"%+	c #7F3F2F",
"&+	c #5C2E22",
"*+	c #834231",
"=+	c #814030",
"-+	c #7D3F2F",
";+	c #793D2E",
">+	c #5F3024",
",+	c #572C21",
"'+	c #7D4030",
")+	c #753C2D",
"!+	c #864534",
"~+	c #814132",
"{+	c #7E4031",
"]+	c #7B3F30",
"^+	c #894736",
"/+	c #824333",
"(+	c #804232",
"_+	c #703A2C",
":+	c #793F30",
"<+	c #8F4A39",
"[+	c #854535",
"}+	c #904C3A",
"|+	c #834535",
"1+	c #773E30",
"2+	c #5E3126",
"3+	c #A25642",
"4+	c #804334",
"5+	c #7A4032",
"6+	c #5D3126",
"7+	c #5B3025",
"8+	c #814435",
"9+	c #7E4334",
"0+	c #7C4133",
"a+	c #6D3A2D",
"b+	c #613428",
"c+	c #B25E4A",
"d+	c #874838",
"e+	c #7B4133",
"f+	c #784032",
"g+	c #A55945",
"h+	c #834737",
"i+	c #774032",
"j+	c #66372B",
"k+	c #864939",
"l+	c #B96651",
"m+	c #734033",
"n+	c #683A2F",
"o+	c #5E382E",
"p+	c #73493E",
"q+	c #84635B",
"r+	c #7A625C",
"s+	c #7D7978",
"t+	c #797574",
"u+	c #5C2F25",
"v+	c #9F5241",
"w+	c #763D30",
"x+	c #944E3E",
"y+	c #63443D",
"z+	c #8F6961",
"A+	c #7A706E",
"B+	c #756C6A",
"C+	c #834539",
"D+	c #7C7B7B",
"E+	c #818181",
"F+	c #808080",
"G+	c #7E7E7E",
"H+	c #FFFFFF",
"                                ",
"              9.W.              ",
"            Z.e+J.f.r+          ",
"        L.&+b+[+C.d+-+p+        ",
"      o+u.b+G.F.m.x.1+m.g.      ",
"      j.r.u.<+5+!+8+f+s.%+      ",
"    Y.6+q.i+g+8.v.f.I.C.=+      ",
"  y+q.t.x+}.}.c+P.h.:+x.;+      ",
"  0.5.m F C B l B.~+O.s.-+      ",
"    O w w +.C V l <.B.O.-+      ",
"      @...S Q u t C j g+`.      ",
"      ^.= H - r D o U           ",
"      M [.'.' ) D D ).          ",
"              N '.].!.          ",
"                                ",
"                                "};
