/* XPM */
static const char* kOutsideLowXPM[] = {
"16 16 167 2",
"  	c None",
". 	c #F2F2F3",
"+ 	c #FEFEFE",
"@ 	c #E9E9E9",
"# 	c #E1E0E2",
"$ 	c #F5F5F5",
"% 	c #9E6714",
"& 	c #4C8380",
"* 	c #594321",
"= 	c #263E15",
"- 	c #4F4902",
"; 	c #252018",
"> 	c #A2A49B",
", 	c #725612",
"' 	c #C8C8C8",
") 	c #9B680E",
"! 	c #617D66",
"~ 	c #FBFBFB",
"{ 	c #8D7048",
"] 	c #2C460A",
"^ 	c #667710",
"/ 	c #584F41",
"( 	c #7B6314",
"_ 	c #133700",
": 	c #897116",
"< 	c #41551A",
"[ 	c #020304",
"} 	c #58643A",
"| 	c #A8A9A3",
"1 	c #F7F7F7",
"2 	c #3B5402",
"3 	c #857F77",
"4 	c #7E6E5A",
"5 	c #5F6E10",
"6 	c #586F10",
"7 	c #737475",
"8 	c #5D4407",
"9 	c #A2A5A4",
"0 	c #614E1E",
"a 	c #A66A10",
"b 	c #43351D",
"c 	c #B3802F",
"d 	c #432E0F",
"e 	c #383A39",
"f 	c #65471B",
"g 	c #776513",
"h 	c #9F7942",
"i 	c #696F12",
"j 	c #5F750A",
"k 	c #C79443",
"l 	c #D9DADC",
"m 	c #171006",
"n 	c #8B8C81",
"o 	c #6D4E24",
"p 	c #4C410C",
"q 	c #D5D5D7",
"r 	c #54430D",
"s 	c #556207",
"t 	c #877357",
"u 	c #487758",
"v 	c #444F0A",
"w 	c #B3B1AD",
"x 	c #927018",
"y 	c #885914",
"z 	c #B9B9B9",
"A 	c #D2D2D3",
"B 	c #584E1D",
"C 	c #394930",
"D 	c #A76912",
"E 	c #6D4B11",
"F 	c #5D5C5A",
"G 	c #402C10",
"H 	c #485A07",
"I 	c #566146",
"J 	c #C6C5C4",
"K 	c #65630F",
"L 	c #878A78",
"M 	c #3F6A6A",
"N 	c #AE711A",
"O 	c #D1D2D4",
"P 	c #C9AC84",
"Q 	c #848778",
"R 	c #A67419",
"S 	c #D0CFD0",
"T 	c #473C2C",
"U 	c #000300",
"V 	c #D0D0D1",
"W 	c #829A75",
"X 	c #885F1E",
"Y 	c #9C7640",
"Z 	c #ABABA7",
"` 	c #DCDDDD",
" .	c #061000",
"..	c #A6A6A6",
"+.	c #3F3B25",
"@.	c #B07B2F",
"#.	c #968F87",
"$.	c #32580C",
"%.	c #AF864D",
"&.	c #987418",
"*.	c #465D04",
"=.	c #727614",
"-.	c #9C6619",
";.	c #727413",
">.	c #796C14",
",.	c #6A6660",
"'.	c #977518",
").	c #453A2C",
"!.	c #F6F7F7",
"~.	c #3E5505",
"{.	c #957618",
"].	c #455F02",
"^.	c #3D6305",
"/.	c #7C6B12",
"(.	c #B2B5B0",
"_.	c #271E11",
":.	c #5FA798",
"<.	c #5B790B",
"[.	c #2D1A01",
"}.	c #967020",
"|.	c #66491F",
"1.	c #6E7712",
"2.	c #6C7012",
"3.	c #396502",
"4.	c #8A5E15",
"5.	c #978A78",
"6.	c #EDEDED",
"7.	c #664A17",
"8.	c #A97424",
"9.	c #FBFBFC",
"0.	c #A16C1F",
"a.	c #E8E6E8",
"b.	c #8C5D19",
"c.	c #9D6F14",
"d.	c #918F8D",
"e.	c #92764D",
"f.	c #D0A15C",
"g.	c #F1F1F1",
"h.	c #C3C2C2",
"i.	c #705F0B",
"j.	c #4C544C",
"k.	c #9B988E",
"l.	c #7E705D",
"m.	c #464F18",
"n.	c #696853",
"o.	c #897015",
"p.	c #449AAE",
"q.	c #7A926F",
"r.	c #A27215",
"s.	c #9B8059",
"t.	c #827E79",
"u.	c #36250C",
"v.	c #7F7015",
"w.	c #888178",
"x.	c #585C03",
"y.	c #838577",
"z.	c #909090",
"A.	c #85641C",
"B.	c #7E551A",
"C.	c #426B37",
"D.	c #72501F",
"E.	c #C48327",
"F.	c #A7752F",
"G.	c #AF7A2E",
"H.	c #726A60",
"I.	c #6E5B12",
"J.	c #FFFFFF",
"                                ",
"              @ d.$             ",
"              J 5...            ",
"          + !.w.P ,.z 6.        ",
"        A t.z.e.f./ T #.        ",
"      ` t s.; %.k b 4 H.@       ",
"    + 3 h Y d F.c * { ).F g.    ",
"    O D.@.|.G 8.A.f G.o m 7     ",
"  ~ l.D E.b._.}.B B.0.X u.[ '   ",
"  l 7.r.N % +.! I -.y 4.E [.e $ ",
". n.i.o.R c.0 p.q.a , g ( r U 9 ",
"Q x.;.v.{.&.8 & W ) I.5 >.p  .j.",
"} j =.: '.x - u :./.K 6 2.v _ C ",
"y.].<.^ 1.i s C.M m.2 *.H ] = (.",
". n < $.^.3.~.L a.q Z k.w V #   ",
"  9.# S | > h.1                 "};
