/* XPM */
static const char* kPlusXPM[] = {
"22 22 31 1",
" 	c None",
".	c #000000",
"{	c #000000",
"]	c #2F7948",
"^	c #388E55",
"/	c #3A9054",
"(	c #3A9255",
"_	c #3E9458",
":	c #4B9B64",
"<	c #59A170",
"[	c #60A476",
"}	c #79B18B",
"|	c #7AB28D",
"1	c #7DB991",
"2	c #7DBD92",
"3	c #7EBE93",
"4	c #80C295",
"5	c #81C597",
"6	c #82C898",
"7	c #83C799",
"8	c #84CA9A",
"9	c #84CE9B",
"0	c #85CB9B",
"a	c #85D19D",
"b	c #87D19E",
"c	c #8BD9A3",
"d	c #8BDBA4",
"e	c #8BDDA5",
"f	c #8FDFA8",
"g	c #8FDFAA",
"h	c #93DFAF",
"                      ",
"       {{{{{{{        ",
"       {hfef|{        ",
"       {fdad:{        ",
"       {ea37/{        ",
"       {ea37/{        ",
"       {ea34^{        ",
" {{{{{{{gb32<{{{{{{{  ",
" {hfeeegga32}1ceef|{  ",
" {fdaaaba633340aad:{  ",
" {ea33333333333337/{  ",
" {fd77422335867779({  ",
" {|://^<}338[_///(]{  ",
" {{{{{{{1436_{{{{{{{  ",
"       {c037/{        ",
"       {ea37/{        ",
"       {ea37/{        ",
"       {fd79({        ",
"       {|:/(]{        ",
"       {{{{{{{        ",
"                      ",
"                      "};
