/* XPM */
static const char* kUniverseLowXPM[] = {
"16 16 165 2",
"  	c None",
". 	c #A9AEBD",
"+ 	c #DDDFEC",
"@ 	c #B2C2E9",
"# 	c #84A0D1",
"$ 	c #507599",
"% 	c #778C8E",
"& 	c #909DA5",
"* 	c #7A8597",
"= 	c #C6CEDA",
"- 	c #AAC1EB",
"; 	c #3A69CA",
"> 	c #4B77C5",
", 	c #577EB4",
"' 	c #5E808A",
") 	c #5E7865",
"! 	c #93A296",
"~ 	c #A8AD9D",
"{ 	c #5A7185",
"] 	c #5F81AA",
"^ 	c #6791CF",
"/ 	c #497BE2",
"( 	c #4578F9",
"_ 	c #7D96DC",
": 	c #7A93CD",
"< 	c #7C9F9C",
"[ 	c #7D9E81",
"} 	c #67846C",
"| 	c #9B9D9A",
"1 	c #5C7679",
"2 	c #4A7098",
"3 	c #3C6AA4",
"4 	c #3D75CD",
"5 	c #5286E9",
"6 	c #5C90EE",
"7 	c #6F9ADD",
"8 	c #88A2D9",
"9 	c #A2AFAF",
"0 	c #7BA187",
"a 	c #899591",
"b 	c #948686",
"c 	c #5A7287",
"d 	c #335A81",
"e 	c #3F6A98",
"f 	c #4373AF",
"g 	c #4277CB",
"h 	c #5A8FDD",
"i 	c #7DA9D1",
"j 	c #95A9C1",
"k 	c #C8C7D0",
"l 	c #B8BEC2",
"m 	c #7299AC",
"n 	c #9FA9B7",
"o 	c #9C939D",
"p 	c #949085",
"q 	c #35526E",
"r 	c #385F86",
"s 	c #41709E",
"t 	c #467CB9",
"u 	c #4076C9",
"v 	c #4F82DB",
"w 	c #94ACC6",
"x 	c #89A1BC",
"y 	c #9BB0D1",
"z 	c #9DADC0",
"A 	c #819EC1",
"B 	c #D2D2CF",
"C 	c #A49D9F",
"D 	c #7F7777",
"E 	c #2D4965",
"F 	c #3C658A",
"G 	c #4474A4",
"H 	c #4477B6",
"I 	c #3E74CA",
"J 	c #778EB5",
"K 	c #7B93BE",
"L 	c #5489E9",
"M 	c #5786DA",
"N 	c #4E7FD5",
"O 	c #6089C7",
"P 	c #C9C1D0",
"Q 	c #D1BCBF",
"R 	c #5D6C82",
"S 	c #2C4761",
"T 	c #3A6083",
"U 	c #3D6A97",
"V 	c #3F72AE",
"W 	c #3D76CA",
"X 	c #6A85B0",
"Y 	c #BCBFCC",
"Z 	c #E2E3EB",
"` 	c #93ABE9",
" .	c #96B3F2",
"..	c #B7BDDD",
"+.	c #9693A9",
"@.	c #C7B0B8",
"#.	c #757783",
"$.	c #33485C",
"%.	c #365776",
"&.	c #3B628B",
"*.	c #3C6CA4",
"=.	c #7690BA",
"-.	c #C2B9BD",
";.	c #EAE0E0",
">.	c #E1D7DC",
",.	c #DBCBCE",
"'.	c #D2C6C6",
").	c #F0DDDE",
"!.	c #A69BAB",
"~.	c #767B8F",
"{.	c #525D6C",
"].	c #58646E",
"^.	c #2A4560",
"/.	c #385C80",
"(.	c #446B93",
"_.	c #BEB9BD",
":.	c #EEE4E8",
"<.	c #E4DCE1",
"[.	c #D4C8D0",
"}.	c #E2DBE1",
"|.	c #C7C0C4",
"1.	c #DBCCD0",
"2.	c #AF9B9E",
"3.	c #746D72",
"4.	c #626A77",
"5.	c #243749",
"6.	c #33516F",
"7.	c #3F5F7F",
"8.	c #868688",
"9.	c #B5A7A9",
"0.	c #C5B7B8",
"a.	c #CEBFBE",
"b.	c #CABEC2",
"c.	c #B5A8AB",
"d.	c #9D8D8D",
"e.	c #827675",
"f.	c #525154",
"g.	c #808486",
"h.	c #23374C",
"i.	c #32506F",
"j.	c #405C73",
"k.	c #717175",
"l.	c #7A797E",
"m.	c #7C7C83",
"n.	c #767270",
"o.	c #6D6C67",
"p.	c #6B7062",
"q.	c #50554A",
"r.	c #787E83",
"s.	c #7D8388",
"t.	c #253748",
"u.	c #26405C",
"v.	c #324F6D",
"w.	c #355474",
"x.	c #345477",
"y.	c #435A62",
"z.	c #51594D",
"A.	c #4B4D46",
"B.	c #838784",
"C.	c #656E76",
"D.	c #3D4C5C",
"E.	c #304254",
"F.	c #2F4255",
"G.	c #424F5C",
"H.	c #757472",
"                                ",
"          . + @ # $ %           ",
"      & * = - ; > , ' ) !       ",
"    ~ { ] ^ / ( _ : < [ } |     ",
"    1 2 3 4 5 6 7 8 9 0 a b     ",
"  c d e f g h i j k l m n o p   ",
"  q r s t u v w x y z A B C D   ",
"  E F G H I J K L M N O P Q R   ",
"  S T U V W X Y Z `  ...+.@.#.  ",
"  $.%.&.*.=.-.;.>.,.'.).!.~.{.  ",
"  ].^./.(._.:.<.[.}.|.1.2.3.4.  ",
"    5.6.7.8.9.0.a.b.c.d.e.f.    ",
"    g.h.i.j.k.l.m.n.o.p.q.r.    ",
"      s.t.u.v.w.x.y.z.A.B.      ",
"          C.D.E.F.G.H.          ",
"                                "};
