/* XPM */
static const char* kArrowRightXPM[] = {
"20 20 145 2",
"  	c None",
". 	c #8D8D8D",
"+ 	c #F8F8F8",
"@ 	c #AFAFAF",
"# 	c #AEAEAE",
"$ 	c #FAFAFA",
"% 	c #D3D3D3",
"& 	c #E9E9E9",
"* 	c #F9F9F9",
"= 	c #666565",
"- 	c #F1F1F1",
"; 	c #646363",
"> 	c #E1E1E1",
", 	c #F7F7F7",
"' 	c #F5F5F5",
") 	c #F3F3F3",
"! 	c #8C8C8C",
"~ 	c #E3E3E3",
"{ 	c #C1C1C1",
"] 	c #EBEBEB",
"^ 	c #CDCDCD",
"/ 	c #D9D9D9",
"( 	c #ADADAD",
"_ 	c #ACACAC",
": 	c #DCDCDC",
"< 	c #BDBDBD",
"[ 	c #CCCCCC",
"} 	c #BABABA",
"| 	c #C4C4C4",
"1 	c #D6D6D6",
"2 	c #EDEDED",
"3 	c #C3C3C3",
"4 	c #BEBEBE",
"5 	c #C8C8C8",
"6 	c #464646",
"7 	c #D4D4D4",
"8 	c #E5E5E5",
"9 	c #D2D2D2",
"0 	c #EFEFEF",
"a 	c #EEEEEE",
"b 	c #CFCFCF",
"c 	c #DDDDDD",
"d 	c #E4E4E4",
"e 	c #CBCBCB",
"f 	c #E6E6E6",
"g 	c #D1D1D1",
"h 	c #BCBCBC",
"i 	c #A8A8A8",
"j 	c #CACACA",
"k 	c #CECECE",
"l 	c #C2C2C2",
"m 	c #B6B6B6",
"n 	c #656464",
"o 	c #DFDFDF",
"p 	c #DADADA",
"q 	c #C6C6C6",
"r 	c #E7E7E7",
"s 	c #B5B5B5",
"t 	c #000000",
"u 	c #B9B9B9",
"v 	c #232323",
"w 	c #D0D0D0",
"x 	c #9E9D9D",
"y 	c #FBFBFB",
"z 	c #D8D8D8",
"A 	c #F0F0F0",
"B 	c #7C7C7C",
"C 	c #BFBFBF",
"D 	c #B7B7B7",
"E 	c #EAEAEA",
"F 	c #F4F4F4",
"G 	c #D5D5D5",
"H 	c #B3B3B3",
"I 	c #8B8B8B",
"J 	c #333333",
"K 	c #959595",
"L 	c #878787",
"M 	c #A7A6A6",
"N 	c #595858",
"O 	c #707070",
"P 	c #4D4C4C",
"Q 	c #DEDEDE",
"R 	c #434343",
"S 	c #E0E0E0",
"T 	c #8E8D8D",
"U 	c #515151",
"V 	c #D7D7D7",
"W 	c #0F0F0F",
"X 	c #A7A7A7",
"Y 	c #7F7F7F",
"Z 	c #7E7D7D",
"` 	c #252525",
" .	c #BBBBBB",
"..	c #7C7B7B",
"+.	c #616060",
"@.	c #777777",
"#.	c #B4B4B4",
"$.	c #828282",
"%.	c #797979",
"&.	c #F6F6F6",
"*.	c #C7C7C7",
"=.	c #393939",
"-.	c #AAAAAA",
";.	c #C5C5C5",
">.	c #4E4E4E",
",.	c #E8E8E8",
"'.	c #3A3A3A",
").	c #787878",
"!.	c #353535",
"~.	c #444444",
"{.	c #757575",
"].	c #A3A3A3",
"^.	c #6D6C6C",
"/.	c #363636",
"(.	c #585757",
"_.	c #0E0E0E",
":.	c #C4C3C3",
"<.	c #6D6D6D",
"[.	c #BCBBBB",
"}.	c #3B3B3B",
"|.	c #DBDBDB",
"1.	c #C0C0C0",
"2.	c #454444",
"3.	c #B8B8B8",
"4.	c #7E7E7E",
"5.	c #BDBCBC",
"6.	c #626262",
"7.	c #E2E2E2",
"8.	c #696868",
"9.	c #989898",
"0.	c #4E4D4D",
"a.	c #383838",
"b.	c #ECECEC",
"c.	c #B6B5B5",
"d.	c #919090",
"e.	c #737373",
"f.	c #7A7A7A",
"g.	c #3C3C3C",
"h.	c #B1B1B1",
"i.	c #C0BFBF",
"j.	c #484848",
"k.	c #ABABAB",
"l.	c #FCFCFC",
"m.	c #FDFDFD",
"n.	c #FEFEFE",
"1.3 :.{ i.i.i.i.i.i.i.i.i.i.i.i.5.c.k.x ",
"[.n.n.n.n.n.n.n.n.n.n.n.n.n.n.n.n.n.n.T ",
"m n.n.m.m.m.m.m.m.m.m.m.m.m.m.m.m.m.A ..",
"@ m.m.l.l.l.l.l.l.l.l.l.l.l.l.l.l.] 9 ^.",
"k.y y $ $ $ $ $ $ * * * + , + * 0 / { = ",
"k.* * + + + + + + , ' 3 l - - ) E 1 C = ",
"k., , &.' ' F F ) - a h W I r & d g < = ",
"k., ' ) - 0 2 ] & r ~ o # _.$.c p e u = ",
"k.' ) 0 ( B f.%.@.{.e.O <.R t B b | s n ",
"k.) A 2 I g.}.'.=.a./.!.J ` t >.q < h.; ",
"k.- a & ~ : G w [ 5 l  .i v 6 u 4 D ( ; ",
"k.a ] f S / 9 ^ 5 3 4 -.v ~.( #.} s k.; ",
"k.2 E 8 > |.1 g k j ;.Y 6.H H } C D _ ; ",
"k.b.& 8 7.c / V 7 w [ q { h < | | } _ ; ",
"k.] & f ~ > Q : p z 7 b e 5 j k ^ 4 # n ",
"k.& ,.8 d ~ > > > o : / 1 7 G z % { @ = ",
"M f d : % % % % % 9 g b ^ [ [ ^ *.m ].+.",
"x c e 3.@ @ @ @ @ # # # _ _ ( # X 9.! (.",
"d.< i K . . . . . . . ! ! ! ! . L 4.).U ",
"Z 8.N 0.j.j.j.j.j.j.j.j.j.j.j.j.6 2.6 P "};
