/* XPM */
static const char* kArrowDownRightXPM[] = {
"20 20 143 2",
"  	c None",
". 	c #AFAFAF",
"+ 	c #F2F2F2",
"@ 	c #E8E8E8",
"# 	c #F5F5F5",
"$ 	c #FAFAFA",
"% 	c #ECECEC",
"& 	c #666565",
"* 	c #EBEBEB",
"= 	c #464646",
"- 	c #484848",
"; 	c #F7F7F7",
"> 	c #E4E4E4",
", 	c #DCDCDC",
"' 	c #A8A8A8",
") 	c #EFEFEF",
"! 	c #646363",
"~ 	c #EAEAEA",
"{ 	c #F3F3F3",
"] 	c #ADADAD",
"^ 	c #B7B7B7",
"/ 	c #E9E9E9",
"( 	c #F0F0F0",
"_ 	c #D5D5D5",
": 	c #F8F8F8",
"< 	c #D3D3D3",
"[ 	c #D2D2D2",
"} 	c #A9A9A9",
"| 	c #E5E5E5",
"1 	c #F6F6F6",
"2 	c #E7E7E7",
"3 	c #8D8D8D",
"4 	c #828282",
"5 	c #B4B4B4",
"6 	c #CBCBCB",
"7 	c #E1E1E1",
"8 	c #454545",
"9 	c #F4F4F4",
"0 	c #C0C0C0",
"a 	c #9E9E9E",
"b 	c #E3E3E3",
"c 	c #E6E6E6",
"d 	c #EEEEEE",
"e 	c #D9D9D9",
"f 	c #C1C1C1",
"g 	c #D1D1D1",
"h 	c #ACACAC",
"i 	c #BEBEBE",
"j 	c #B9B9B9",
"k 	c #B2B2B2",
"l 	c #B3B3B3",
"m 	c #C8C8C8",
"n 	c #F1F1F1",
"o 	c #7C7C7C",
"p 	c #DBDBDB",
"q 	c #474747",
"r 	c #BDBDBD",
"s 	c #A0A0A0",
"t 	c #D4D4D4",
"u 	c #858585",
"v 	c #EDEDED",
"w 	c #C7C7C7",
"x 	c #B8B8B8",
"y 	c #0E0E0E",
"z 	c #9E9D9D",
"A 	c #BBBBBB",
"B 	c #FBFBFB",
"C 	c #989898",
"D 	c #BFBFBF",
"E 	c #E2E2E2",
"F 	c #B6B6B6",
"G 	c #8C8C8C",
"H 	c #101010",
"I 	c #636363",
"J 	c #656464",
"K 	c #797979",
"L 	c #575757",
"M 	c #DFDFDF",
"N 	c #C3C3C3",
"O 	c #CDCDCD",
"P 	c #7C7B7B",
"Q 	c #AAAAAA",
"R 	c #848484",
"S 	c #2D2D2D",
"T 	c #6D6C6C",
"U 	c #B6B5B5",
"V 	c #8A8A8A",
"W 	c #898989",
"X 	c #0F0F0F",
"Y 	c #929292",
"Z 	c #505050",
"` 	c #A7A6A6",
" .	c #535353",
"..	c #DEDEDE",
"+.	c #E0E0E0",
"@.	c #878787",
"#.	c #696868",
"$.	c #7B7B7B",
"%.	c #DDDDDD",
"&.	c #5C5C5C",
"*.	c #585757",
"=.	c #605F5F",
"-.	c #B1B1B1",
";.	c #D7D7D7",
">.	c #0D0D0D",
",.	c #4D4C4C",
"'.	c #A6A6A6",
").	c #C5C5C5",
"!.	c #959595",
"~.	c #C4C3C3",
"{.	c #515151",
"].	c #969696",
"^.	c #0C0C0C",
"/.	c #919090",
"(.	c #AEAEAE",
"_.	c #7E7D7D",
":.	c #8B8B8B",
"<.	c #8E8D8D",
"[.	c #838383",
"}.	c #B5B5B5",
"|.	c #C4C4C4",
"1.	c #CACACA",
"2.	c #787878",
"3.	c #777777",
"4.	c #CCCCCC",
"5.	c #9B9B9B",
"6.	c #4A4A4A",
"7.	c #4E4D4D",
"8.	c #444343",
"9.	c #9C9C9C",
"0.	c #D6D6D6",
"a.	c #BCBBBB",
"b.	c #9A9A9A",
"c.	c #595858",
"d.	c #BDBCBC",
"e.	c #A4A4A4",
"f.	c #F9F9F9",
"g.	c #C0BFBF",
"h.	c #ABABAB",
"i.	c #FCFCFC",
"j.	c #FDFDFD",
"k.	c #FEFEFE",
"l.	c #000000",
"0 N ~.f g.g.g.g.g.g.g.g.g.g.g.g.d.U h.z ",
"a.k.k.k.k.k.k.k.k.k.k.k.k.k.k.k.k.k.k.<.",
"F k.k.j.j.j.j.j.j.j.j.j.j.j.j.j.j.j.( P ",
". j.j.i.i.i.i.i.i.i.i.i.i.i.i.i.i.* [ T ",
"h.B B $ $ f.f.f.f.f.f.f.$ $ $ $ ( e f & ",
"h.f.f.: ; 1 9 b + + 9 # ; : : : d ;.0 & ",
"h.; ; 1 # + . H A ~ % ) + # # 1 % _ i & ",
"h.; 1 # { ) * &.X }.> @ * ) n { ~ < r & ",
"h.# 9 { ( % 2 +.L y ] p 7 m e % | g A & ",
"h.{ + + ) ~ > , t  .y '._ s S E M 6 ^ & ",
"h.+ n ( d / b p [ 4.Z >.s ].l._ _ ).5 J ",
"h.) d v * @ b , [ 1.f 6.^.I l.|.m i . ! ",
"h.v % * / @ > ..0.6 0 5 8 l.l.^ D ^ h ! ",
"h.% ~ / @ 2 | 7 e o l.l.l.l.l.. j l ' ! ",
"h.* ~ @ 2 2 c E , [ a u o 2.K ] ^ k ' ! ",
"h./ @ c | | > 7 , t w x ] ' } -.j l ' ! ",
"` c > , < < < g O w D 5 ] } Q . k } a =.",
"z %.6 x . . . (.h } e.a b.C C 9.5.Y W *.",
"/.r ' !.3 3 3 G :.V @.u [.4 4 R 4 $.3.{.",
"_.#.c.7.- - - - - q q = = 8 = = 8 8.= ,."};
