/* XPM */
static const char* kFileXPM[] = {
"32 32 359 2",
". 	c None",
"  	c #FFFFFF",
"+ 	c #FDFDFD",
"@ 	c #FAFAFA",
"# 	c #FBFBFB",
"$ 	c #FCFCFC",
"% 	c #FEFEFE",
"& 	c #7B79EA",
"* 	c #7978EA",
"= 	c #8584EC",
"- 	c #8A89EC",
"; 	c #8D8CED",
"> 	c #8F8EED",
", 	c #8E8DED",
"' 	c #8C8BED",
") 	c #8785EC",
"! 	c #807DEB",
"~ 	c #736AEE",
"{ 	c #7977EA",
"] 	c #BDBDBD",
"^ 	c #F5F5F5",
"/ 	c #5129FF",
"( 	c #7A78EA",
"_ 	c #8482EB",
": 	c #9695EE",
"< 	c #A4A4EF",
"[ 	c #ACADF1",
"} 	c #B0B1F1",
"| 	c #AFAFF1",
"1 	c #B1B1F1",
"2 	c #AFB0F1",
"3 	c #ADADF1",
"4 	c #ACACF0",
"5 	c #ABABF0",
"6 	c #9491EF",
"7 	c #7876E9",
"8 	c #7776E9",
"9 	c #ABABAB",
"0 	c #F7F7F7",
"a 	c #807FEB",
"b 	c #9797EE",
"c 	c #ADAEF0",
"d 	c #BDBFF2",
"e 	c #C5C7F3",
"f 	c #C7C9F3",
"g 	c #CACCF4",
"h 	c #BEC0F2",
"i 	c #B2B2F1",
"j 	c #7575E8",
"k 	c #A0A3EC",
"l 	c #8788EA",
"m 	c #B5B5B5",
"n 	c #8C8CEC",
"o 	c #A7A8EF",
"p 	c #BBBEF2",
"q 	c #CED1F4",
"r 	c #D7DBF5",
"s 	c #D8DCF5",
"t 	c #D9DDF5",
"u 	c #D6DAF5",
"v 	c #D2D5F4",
"w 	c #C9CCF3",
"x 	c #7979E8",
"y 	c #B0B6EB",
"z 	c #8081E8",
"A 	c #C0C0C0",
"B 	c #9596ED",
"C 	c #ACAEEF",
"D 	c #C3C6F2",
"E 	c #D5D9F4",
"F 	c #DEE3F5",
"G 	c #E3E7F5",
"H 	c #E2E7F5",
"I 	c #E1E6F5",
"J 	c #E0E4F5",
"K 	c #D7DCF4",
"L 	c #7576E7",
"M 	c #ACB6E8",
"N 	c #BCC7E8",
"O 	c #A4ACE7",
"P 	c #7879E7",
"Q 	c #C9C9C9",
"R 	c #9799EC",
"S 	c #B1B4EF",
"T 	c #C6CBF1",
"U 	c #D6DCF3",
"V 	c #E0E7F4",
"W 	c #E3EAF4",
"X 	c #E2E9F4",
"Y 	c #DFE5F4",
"Z 	c #7173E5",
"` 	c #A2AEE3",
" .	c #B4C5E2",
"..	c #B0BFE2",
"+.	c #9BA6E3",
"@.	c #7578E5",
"#.	c #C4C4C4",
"$.	c #AEB1EE",
"%.	c #C3C8F0",
"&.	c #D5DCF2",
"*.	c #DCE3F3",
"=.	c #E0E7F3",
"-.	c #DFE6F3",
";.	c #DEE5F3",
">.	c #6F71E4",
",.	c #98A5DF",
"'.	c #AABCDD",
").	c #A9BADD",
"!.	c #A4B4DE",
"~.	c #909CE0",
"{.	c #6767E6",
"].	c #CDCDCD",
"^.	c #9495EB",
"/.	c #ABAFED",
"(.	c #C1C6EF",
"_.	c #D1D7F0",
":.	c #DAE1F1",
"<.	c #DDE4F1",
"[.	c #686AE3",
"}.	c #8895DE",
"|.	c #96A8DC",
"1.	c #95A7DC",
"2.	c #90A0DD",
"3.	c #7E88E0",
"4.	c #4238F0",
"5.	c #C7C7C7",
"6.	c #9395EB",
"7.	c #AAAEEC",
"8.	c #BFC5EE",
"9.	c #CDD4EF",
"0.	c #D7DFF0",
"a.	c #D9E1F0",
"b.	c #6769E2",
"c.	c #6C71E1",
"d.	c #747CDF",
"e.	c #757EDF",
"f.	c #757DDF",
"g.	c #6E74E1",
"h.	c #6669E3",
"i.	c #5957E8",
"j.	c #DCDCDC",
"k.	c #9093EA",
"l.	c #A7ACEC",
"m.	c #BBC3ED",
"n.	c #C8D1EE",
"o.	c #D1DBEF",
"p.	c #D4DEEF",
"q.	c #C8D2E2",
"r.	c #AEB5C5",
"s.	c #A6ADBD",
"t.	c #A3AABD",
"u.	c #9AA1BD",
"v.	c #9095BC",
"w.	c #7E81BB",
"x.	c #6664BC",
"y.	c #5A52C9",
"z.	c #9093E9",
"A.	c #A5AAEA",
"B.	c #B8BFEC",
"C.	c #C8D1EC",
"D.	c #CED7ED",
"E.	c #D1DBED",
"F.	c #D0DAED",
"G.	c #CFD9ED",
"H.	c #C6CFEC",
"I.	c #B9C1EC",
"J.	c #A7ADEB",
"K.	c #8E91E9",
"L.	c #7573E9",
"M.	c #B6B6B6",
"N.	c #8E92E8",
"O.	c #A1A7E9",
"P.	c #B4BCEA",
"Q.	c #C3CDEB",
"R.	c #CCD7EB",
"S.	c #CDD8EB",
"T.	c #CBD5EB",
"U.	c #C6D0EB",
"V.	c #BAC3EA",
"W.	c #AAB1E9",
"X.	c #9397E9",
"Y.	c #7C7DE8",
"Z.	c #ACACAC",
"`.	c #8B8EE8",
" +	c #A0A6E9",
".+	c #B2BAE9",
"++	c #C0CAEA",
"@+	c #C8D3EA",
"#+	c #C9D4EA",
"$+	c #C2CDEA",
"%+	c #B8C1E9",
"&+	c #A9B0E9",
"*+	c #9599E8",
"=+	c #7E80E7",
"-+	c #AAAAAA",
";+	c #8B8FE7",
">+	c #9CA3E7",
",+	c #AEB8E8",
"'+	c #BCC8E8",
")+	c #C3D0E8",
"!+	c #C5D2E8",
"~+	c #BFCCE8",
"{+	c #B6C1E8",
"]+	c #A7B0E7",
"^+	c #9399E7",
"/+	c #7F81E7",
"(+	c #878CE6",
"_+	c #9AA2E6",
":+	c #AAB5E6",
"<+	c #B7C3E6",
"[+	c #BFCDE6",
"}+	c #C0CEE6",
"|+	c #BBC8E6",
"1+	c #B3BFE6",
"2+	c #A4AEE6",
"3+	c #9197E6",
"4+	c #7C7EE6",
"5+	c #858AE6",
"6+	c #98A1E5",
"7+	c #A9B4E5",
"8+	c #B3C0E5",
"9+	c #BAC8E5",
"0+	c #BCCBE5",
"a+	c #B9C7E5",
"b+	c #AFBBE5",
"c+	c #A1ABE5",
"d+	c #8F95E5",
"e+	c #7C80E6",
"f+	c #8489E5",
"g+	c #969EE5",
"h+	c #A5AFE4",
"i+	c #B0BCE4",
"j+	c #B7C4E4",
"k+	c #B9C7E4",
"l+	c #B4C2E4",
"m+	c #ADB9E4",
"n+	c #9EA8E5",
"o+	c #8D93E5",
"p+	c #7B7DE5",
"q+	c #8288E4",
"r+	c #929CE3",
"s+	c #A1ADE3",
"t+	c #ADBCE2",
"u+	c #B2C3E2",
"v+	c #B1C1E2",
"w+	c #A9B7E3",
"x+	c #9BA7E3",
"y+	c #8B93E4",
"z+	c #797DE5",
"A+	c #8086E3",
"B+	c #9099E2",
"C+	c #9EAAE1",
"D+	c #A8B7E1",
"E+	c #AEBEE0",
"F+	c #B0C1E0",
"G+	c #ACBCE0",
"H+	c #A4B3E1",
"I+	c #98A4E2",
"J+	c #8991E3",
"K+	c #777BE4",
"L+	c #7F85E3",
"M+	c #8E98E2",
"N+	c #9CA9E0",
"O+	c #A6B5E0",
"P+	c #ACBCDF",
"Q+	c #ADBEDF",
"R+	c #A9B9DF",
"S+	c #A2B1E0",
"T+	c #96A2E1",
"U+	c #868EE2",
"V+	c #7C83E2",
"W+	c #8B95E0",
"X+	c #99A6DF",
"Y+	c #A2B2DE",
"Z+	c #A8BADD",
"`+	c #A9BBDD",
" @	c #A6B7DD",
".@	c #9FAEDE",
"+@	c #94A0DF",
"@@	c #848DE1",
"#@	c #7579E3",
"$@	c #7B83E1",
"%@	c #8894E0",
"&@	c #95A4DE",
"*@	c #9EB0DD",
"=@	c #A3B7DC",
"-@	c #A5B9DC",
";@	c #A2B6DC",
">@	c #9AABDD",
",@	c #919FDF",
"'@	c #828BE1",
")@	c #7479E3",
"!@	c #7980E1",
"~@	c #8691DF",
"{@	c #92A1DD",
"]@	c #9BACDB",
"^@	c #A0B2DB",
"/@	c #A2B5DA",
"(@	c #A3B6DA",
"_@	c #A1B4DA",
":@	c #A2B4DA",
"<@	c #9EB0DB",
"[@	c #98A7DC",
"}@	c #8E9BDD",
"|@	c #8088E0",
"1@	c #7276E2",
"2@	c #7479E1",
"3@	c #8089DF",
"4@	c #8A98DE",
"5@	c #92A2DC",
"6@	c #96A8DB",
"7@	c #9AACDB",
"8@	c #99ABDB",
"9@	c #98AADB",
"0@	c #96A7DC",
"a@	c #8F9EDD",
"b@	c #8591DE",
"c@	c #7A81E0",
"d@	c #6D71E3",
"e@	c #6C71E2",
"f@	c #777FE0",
"g@	c #818DDE",
"h@	c #8796DC",
"i@	c #8C9CDB",
"j@	c #8D9EDB",
"k@	c #8E9EDB",
"l@	c #8E9FDB",
"m@	c #8A9ADC",
"n@	c #8492DD",
"o@	c #7D88DE",
"p@	c #7279E1",
"q@	c #676AE3",
"r@	c #6D72E1",
"s@	c #767EDF",
"t@	c #7C87DE",
"u@	c #808CDD",
"v@	c #818EDD",
"w@	c #828FDC",
"x@	c #818DDD",
"y@	c #7E8ADD",
"z@	c #7983DE",
"A@	c #7279E0",
"B@	c #6A6DE2",
"C@	c #6769E3",
"D@	c #E7E7E7",
"E@	c #696DE2",
"F@	c #6E74E0",
"G@	c #7178E0",
"H@	c #737BDF",
"I@	c #727ADF",
"J@	c #737ADF",
"K@	c #7077E0",
"L@	c #C5C5C5",
"M@	c #D1D1D1",
"N@	c #6041E5",
"O@	c #EFEFEF",
"P@	c #F9F9F9",
"Q@	c #F4F4F4",
"R@	c #F6F6F6",
". . . . . . . . . . . . . . . . . . . . . . . . . . . . . . . . ",
". . . . . . + @ @ @ @ @ @ @ @ @ @ @ # $ % . . . . . . . . . . . ",
". . . . $ & * * = - ; > , , ' ' ) ! ~ { ] ^ . . . . . . . . . . ",
". . . . / ( _ : < [ } | 1 2 3 4 5 < 6 7 8 9 0 . . . . . . . . . ",
". . . . / a b c d e f f g f f e e h i j k l m @ . . . . . . . . ",
". . . . / n o p q r s t t s s r u v w x y y z A + . . . . . . . ",
". . . . / B C D E F G H I I H J I F K L M N O P Q + . . . . . . ",
". . . . / R S T U V W W W W W W X V Y Z `  ...+.@.#.+ . . . . . ",
". . . . / R $.%.&.*.=.=.=.=.=.=.=.-.;.>.,.'.).!.~.{.].$ . . . . ",
". . . . / ^./.(._.:.<.<.<.<.<.<.<.<.<.[.}.|.|.1.2.3.4.5.+ . . . ",
". . . . / 6.7.8.9.0.a.a.a.a.a.a.a.a.a.b.c.d.e.f.d.g.h.i.j.. . . ",
". . . . / k.l.m.n.o.p.p.p.p.p.p.p.p.p.q.r.s.t.u.v.w.x.y.A + . . ",
". . . . / z.A.B.C.D.E.E.E.E.E.E.E.E.E.E.E.F.G.H.I.J.K.L.M.# . . ",
". . . . / N.O.P.Q.R.S.S.S.S.S.S.S.S.S.S.S.S.T.U.V.W.X.Y.Z.@ . . ",
". . . . / `. +.+++@+#+#+#+#+#+#+#+#+#+#+#+#+@+$+%+&+*+=+-+@ . . ",
". . . . / ;+>+,+'+)+!+!+!+!+!+!+!+!+!+!+!+!+!+~+{+]+^+/+-+@ . . ",
". . . . / (+_+:+<+[+}+}+}+}+}+}+}+}+}+}+}+}+}+|+1+2+3+4+-+@ . . ",
". . . . / 5+6+7+8+9+0+0+0+0+0+0+0+0+0+0+0+0+0+a+b+c+d+e+-+@ . . ",
". . . . / f+g+h+i+j+k+k+k+k+k+k+k+k+k+k+k+k+k+l+m+n+o+p+-+@ . . ",
". . . . / q+r+s+t+u+ . . . . . . . . . . . . .v+w+x+y+z+-+@ . . ",
". . . . / A+B+C+D+E+F+F+F+F+F+F+F+F+F+F+F+F+F+G+H+I+J+K+-+@ . . ",
". . . . / L+M+N+O+P+Q+Q+Q+Q+Q+Q+Q+Q+Q+Q+Q+Q+Q+R+S+T+U+K+-+@ . . ",
". . . . / V+W+X+Y+Z+`+`+`+`+`+`+`+`+`+`+`+`+`+ @.@+@@@#@-+@ . . ",
". . . . / $@%@&@*@=@-@-@-@-@-@-@-@-@-@-@-@-@-@;@>@,@'@)@-+@ . . ",
". . . . / !@~@{@]@^@/@/@/@/@/@/@/@(@_@/@/@/@:@<@[@}@|@1@-+@ . . ",
". . . . / 2@3@4@5@6@7@8@8@8@9@9@9@8@7@9@8@8@8@0@a@b@c@d@-+@ . . ",
". . . . / e@f@g@h@i@j@k@l@l@l@j@j@j@l@l@l@l@j@m@n@o@p@q@-+@ . . ",
". . . . / q@r@s@t@u@v@w@v@v@x@w@w@v@w@w@v@x@v@y@z@A@B@C@Z.@ . . ",
". . . . D@b.h.E@F@G@H@H@H@H@I@H@H@H@J@H@J@H@H@K@r@h.h.h.L@+ . . ",
". . . . # M@/ / / / / / / / / / / / / / / / / / / / N@M.O@. . . ",
". . . . . % P@^ Q@Q@Q@Q@Q@Q@Q@Q@Q@Q@Q@Q@Q@Q@Q@Q@Q@Q@R@$ . . . . ",
". . . . . . . . . . . . . . . . . . . . . . . . . . . . . . . . "};
