/* XPM */
static const char* kLowerXPM[] = {
"24 24 206 2",
"  	c None",
". 	c #62744F",
"+ 	c #D9D9D9",
"@ 	c #3C5622",
"# 	c #425D25",
"$ 	c #516241",
"% 	c #365619",
"& 	c #909C83",
"* 	c #516340",
"= 	c #CCCECA",
"- 	c #314D15",
"; 	c #AAB69D",
"> 	c #F1F3EF",
", 	c #839076",
"' 	c #7F906E",
") 	c #758366",
"! 	c #506839",
"~ 	c #556C3D",
"{ 	c #566D3F",
"] 	c #F0F1F0",
"^ 	c #697E53",
"/ 	c #CCD3C6",
"( 	c #667359",
"_ 	c #7E8A72",
": 	c #F0F0F0",
"< 	c #58674A",
"[ 	c #3C5A20",
"} 	c #D4DACD",
"| 	c #6E815A",
"1 	c #D5DBD0",
"2 	c #5D7545",
"3 	c #7E8872",
"4 	c #768E5E",
"5 	c #39541F",
"6 	c #3A551E",
"7 	c #849573",
"8 	c #6A8054",
"9 	c #6A8252",
"0 	c #859772",
"a 	c #9EA597",
"b 	c #626D57",
"c 	c #808F71",
"d 	c #A4A99F",
"e 	c #A3B194",
"f 	c #E9E9E9",
"g 	c #F4F4F4",
"h 	c #435C2A",
"i 	c #768D60",
"j 	c #A5AB9E",
"k 	c #758368",
"l 	c #8F9985",
"m 	c #748265",
"n 	c #89927E",
"o 	c #E1E2E0",
"p 	c #5A6B48",
"q 	c #828C75",
"r 	c #838E77",
"s 	c #F9F9F9",
"t 	c #A3AE97",
"u 	c #7A8D67",
"v 	c #7B8F66",
"w 	c #5C7145",
"x 	c #5C7046",
"y 	c #D5D7D4",
"z 	c #CAD0C3",
"A 	c #6F835B",
"B 	c #D6D6D6",
"C 	c #F5F5F5",
"D 	c #7F8C70",
"E 	c #49622F",
"F 	c #4E6A32",
"G 	c #F6F8F5",
"H 	c #92A480",
"I 	c #ADB5A5",
"J 	c #3A5121",
"K 	c #7F9369",
"L 	c #5F714C",
"M 	c #6C7D59",
"N 	c #A7B598",
"O 	c #E7EBE3",
"P 	c #9BA296",
"Q 	c #66715A",
"R 	c #8A997B",
"S 	c #E7E8E7",
"T 	c #4A5D38",
"U 	c #28410E",
"V 	c #959C8D",
"W 	c #D9DBD8",
"X 	c #456029",
"Y 	c #657355",
"Z 	c #BBBEB8",
"` 	c #F8F8F8",
" .	c #566744",
"..	c #5D7149",
"+.	c #CED6C5",
"@.	c #738660",
"#.	c #5A7141",
"$.	c #979D91",
"%.	c #79886A",
"&.	c #DFE2DD",
"*.	c #556247",
"=.	c #41542F",
"-.	c #7C8E68",
";.	c #364E1E",
">.	c #AFBDA0",
",.	c #324B19",
"'.	c #5B7046",
").	c #334F16",
"!.	c #808E70",
"~.	c #51683B",
"{.	c #DADBDA",
"].	c #859477",
"^.	c #D6DCD0",
"/.	c #4F6637",
"(.	c #CCCEC9",
"_.	c #4E6734",
":.	c #DADADA",
"<.	c #A7B698",
"[.	c #3A571D",
"}.	c #6F7E61",
"|.	c #AEB6A6",
"1.	c #37531B",
"2.	c #A1B093",
"3.	c #59654C",
"4.	c #61734D",
"5.	c #77846C",
"6.	c #4F5E41",
"7.	c #5C7245",
"8.	c #38531D",
"9.	c #5E7347",
"0.	c #8E9A82",
"a.	c #85917C",
"b.	c #D1D2D0",
"c.	c #687D56",
"d.	c #DCDDDB",
"e.	c #E0E6DB",
"f.	c #667B4F",
"g.	c #C6CDBE",
"h.	c #6B7D59",
"i.	c #697B57",
"j.	c #BFCAB4",
"k.	c #777F6E",
"l.	c #909B83",
"m.	c #8F9F7E",
"n.	c #6E7E5E",
"o.	c #465E2F",
"p.	c #B6BFAB",
"q.	c #A7B39A",
"r.	c #496033",
"s.	c #3C591C",
"t.	c #365418",
"u.	c #B1BAA7",
"v.	c #4C6631",
"w.	c #5B7147",
"x.	c #A7ADA3",
"y.	c #D0D2CE",
"z.	c #324A18",
"A.	c #6C7B5D",
"B.	c #5E704B",
"C.	c #A9AEA4",
"D.	c #364A22",
"E.	c #AAAEA5",
"F.	c #5D6B51",
"G.	c #818E76",
"H.	c #334A1B",
"I.	c #95A38A",
"J.	c #F9F9F8",
"K.	c #6D7E5C",
"L.	c #798C67",
"M.	c #A1A59C",
"N.	c #C4CCBC",
"O.	c #5E7448",
"P.	c #677757",
"Q.	c #687659",
"R.	c #4C692F",
"S.	c #E5E5E5",
"T.	c #657850",
"U.	c #738264",
"V.	c #DCE2D6",
"W.	c #EFEFF0",
"X.	c #3D5723",
"Y.	c #EAEAEA",
"Z.	c #3F5C20",
"`.	c #95A683",
" +	c #3C5421",
".+	c #96A388",
"++	c #BCC8B0",
"@+	c #849178",
"#+	c #283F11",
"$+	c #717D65",
"%+	c #ACB6A0",
"&+	c #7C886F",
"*+	c #B7BDB2",
"=+	c #E5E6E5",
"-+	c #9DA695",
";+	c #5E6F4A",
">+	c #576B42",
",+	c #B8BBB6",
"'+	c #6F7E5E",
")+	c #A7ABA2",
"!+	c #D6D6D5",
"~+	c #687858",
"{+	c #647057",
"]+	c #FFFFFF",
"^+	c #000000",
"/+	c #FFFFFF",
"                                                ",
"                    ^+^+                        ",
"                    ^+^+                        ",
"                    ^+^+                        ",
"                    ^+^+                        ",
"                    ^+^+                        ",
"                    ^+^+                        ",
"                    ^+^+] y *+:.]+]+            ",
"      ]+]+]+s f o &.^+^+^.2.K ].+ ]+]+          ",
"    : b.Z -+R `.+.V.^+^+O 1 q.m.!.+ ]+          ",
"  P w.[ 9 i 4 >.e.G ^+^+> } p.8 F h.B           ",
"  $.R.2 -.; N ^+^+^+^+^+^+^+^+.+A u %.{.        ",
"  !+' ^ #.0 v <.^+^+^+^+^+^+t I 0.h s.i.S.      ",
"  J.~+t.6 @.L.H j.^+^+^+^+g.|.P.}.r.X.O.n Y.    ",
"    M.7.'.c l.7 e ++^+^+/ u.U.T =.&+n.>+# k W.  ",
"    d.c.{ ~., G.& %+N.z I.K.$ 6.{+Y L - [.Z.q   ",
"      5.% ).@ ) * p '+@+a.< b 3.D.U 4.w _.m C.  ",
"      ,+f.T.M D l Q.( F.Q k.*.#+H.o.;+V (.      ",
"      g _ ~ E  +x . ,.;.z.J A. .$+)+S           ",
"        d X 8.5 1.| 9./.B.3 x.W                 ",
"        =+..v.! . r j = C                       ",
"          E.a y.`                               ",
"                                                ",
"                                                "};
