/* XPM */
static const char* kPlateauXPM[] = {
"24 24 249 2",
"  	c None",
". 	c #000000",
"+ 	c #A3A89E",
"@ 	c #FBFBFB",
"# 	c #F7F7F7",
"$ 	c #2D3C1D",
"% 	c #273815",
"& 	c #3C492D",
"* 	c #3B571F",
"= 	c #5F6E4F",
"- 	c #415B26",
"; 	c #355316",
"> 	c #355517",
", 	c #94A088",
"' 	c #446026",
") 	c #405B26",
"! 	c #546C3B",
"~ 	c #77846A",
"{ 	c #39571A",
"] 	c #233511",
"^ 	c #223411",
"/ 	c #546B3B",
"( 	c #38541A",
"_ 	c #48622F",
": 	c #3F5B22",
"< 	c #758566",
"[ 	c #3D5B22",
"} 	c #788966",
"| 	c #CDCFCA",
"1 	c #48632C",
"2 	c #253515",
"3 	c #263615",
"4 	c #354229",
"5 	c #161516",
"6 	c #3E5A22",
"7 	c #1E2F0E",
"8 	c #1C2C0C",
"9 	c #86907D",
"0 	c #697E53",
"a 	c #233412",
"b 	c #687E52",
"c 	c #1F2717",
"d 	c #1D2217",
"e 	c #355416",
"f 	c #5C7245",
"g 	c #4F6736",
"h 	c #1B2E0B",
"i 	c #222C17",
"j 	c #536B39",
"k 	c #46612A",
"l 	c #6A7C59",
"m 	c #516A36",
"n 	c #506B34",
"o 	c #D3D5D1",
"p 	c #343C2E",
"q 	c #637A4D",
"r 	c #233311",
"s 	c #9DA397",
"t 	c #405927",
"u 	c #58703E",
"v 	c #20310F",
"w 	c #B9BBB6",
"x 	c #637A4B",
"y 	c #7F906E",
"z 	c #738461",
"A 	c #69745D",
"B 	c #49632F",
"C 	c #D8D9D7",
"D 	c #6A7F57",
"E 	c #989F92",
"F 	c #828E77",
"G 	c #536B3B",
"H 	c #516A3A",
"I 	c #64794F",
"J 	c #647C4D",
"K 	c #335014",
"L 	c #C8CAC6",
"M 	c #47622C",
"N 	c #DDDDDD",
"O 	c #ABAFA7",
"P 	c #3B492C",
"Q 	c #A7ADA1",
"R 	c #62784A",
"S 	c #7B7B7C",
"T 	c #3B4A2A",
"U 	c #BDC1B9",
"V 	c #49583C",
"W 	c #6E805C",
"X 	c #606C54",
"Y 	c #596E44",
"Z 	c #3D5C1E",
"` 	c #213211",
" .	c #415C25",
"..	c #405C26",
"+.	c #FAFBFA",
"@.	c #4B662E",
"#.	c #4A652D",
"$.	c #4C672E",
"%.	c #F8F8F8",
"&.	c #121014",
"*.	c #49662C",
"=.	c #A0A49C",
"-.	c #7F8B72",
";.	c #738761",
">.	c #39571C",
",.	c #72875F",
"'.	c #556544",
").	c #98A090",
"!.	c #39541E",
"~.	c #DADBDA",
"{.	c #E7E7E7",
"].	c #B6BBB2",
"^.	c #2C3A1D",
"/.	c #79866D",
"(.	c #325013",
"_.	c #434C39",
":.	c #7B8C69",
"<.	c #C4C7C1",
"[.	c #314F11",
"}.	c #506040",
"|.	c #4B563F",
"1.	c #6B6E68",
"2.	c #48622D",
"3.	c #8E9885",
"4.	c #61724E",
"5.	c #8F9588",
"6.	c #8C9484",
"7.	c #21310F",
"8.	c #263815",
"9.	c #D9DAD7",
"0.	c #39571E",
"a.	c #345216",
"b.	c #F2F2F2",
"c.	c #313F21",
"d.	c #353B2F",
"e.	c #39561E",
"f.	c #21320F",
"g.	c #586E41",
"h.	c #70845D",
"i.	c #2E3D1E",
"j.	c #4D5B3E",
"k.	c #2D3425",
"l.	c #273616",
"m.	c #36432B",
"n.	c #657951",
"o.	c #364626",
"p.	c #687A56",
"q.	c #D7D7D6",
"r.	c #354524",
"s.	c #2E3428",
"t.	c #242D1B",
"u.	c #536C3A",
"v.	c #39462C",
"w.	c #45622A",
"x.	c #4F6638",
"y.	c #365317",
"z.	c #345315",
"A.	c #525B49",
"B.	c #9C9C9D",
"C.	c #697F54",
"D.	c #546C3C",
"E.	c #BDC0BB",
"F.	c #AAAFA5",
"G.	c #F1F1F1",
"H.	c #7E8F6F",
"I.	c #7B8B6C",
"J.	c #0C0B0D",
"K.	c #7D8C6F",
"L.	c #A3AA9B",
"M.	c #FDFDFD",
"N.	c #758763",
"O.	c #425F26",
"P.	c #213310",
"Q.	c #788A66",
"R.	c #677658",
"S.	c #B7BAB4",
"T.	c #636D58",
"U.	c #FEFEFE",
"V.	c #4F6935",
"W.	c #48642C",
"X.	c #3B5620",
"Y.	c #3F5C22",
"Z.	c #6D8059",
"`.	c #617150",
" +	c #5E714A",
".+	c #677A54",
"++	c #949C8B",
"@+	c #849077",
"#+	c #3B472D",
"$+	c #7D8673",
"%+	c #586F41",
"&+	c #39561B",
"*+	c #3B561F",
"=+	c #546D3B",
"-+	c #3C5A23",
";+	c #334125",
">+	c #738560",
",+	c #3E5B22",
"'+	c #C0C3BD",
")+	c #6B7D58",
"!+	c #748663",
"~+	c #4E6734",
"{+	c #436026",
"]+	c #3A472E",
"^+	c #728460",
"/+	c #86907B",
"(+	c #506D35",
"_+	c #4E643A",
":+	c #DEDEDE",
"<+	c #39462B",
"[+	c #48642B",
"}+	c #1F310E",
"|+	c #5B7341",
"1+	c #63784D",
"2+	c #293818",
"3+	c #7C8870",
"4+	c #C6C7C5",
"5+	c #73885E",
"6+	c #5D7344",
"7+	c #223212",
"8+	c #233312",
"9+	c #39551B",
"0+	c #71845D",
"a+	c #576D40",
"b+	c #556B3D",
"c+	c #3C492E",
"d+	c #546045",
"e+	c #647950",
"f+	c #A4AA9D",
"g+	c #7C8E6A",
"h+	c #758365",
"i+	c #F0F0EF",
"j+	c #405E25",
"k+	c #3E5822",
"l+	c #030205",
"m+	c #5C7047",
"n+	c #46622B",
"o+	c #22340F",
"p+	c #677C50",
"q+	c #7F926E",
"r+	c #56703B",
"s+	c #9EA399",
"t+	c #A3AA9C",
"u+	c #303E22",
"v+	c #71756B",
"w+	c #3D5822",
"x+	c #233410",
"y+	c #475C30",
"z+	c #FFFFFF",
"                                                ",
"                                                ",
"                                                ",
"                G.~.'+f+@+O                     ",
"          4+L.-.m+>+! K ( m w                   ",
"          1.[+y. .D., )+.+h.q ].                ",
"          S A.5+n.I 6+H...(.[.*.+ @             ",
"          B.5 _+> z.a.G :.b+4.'.d+N             ",
"  U.b.q.E.v+. s.j a+`.}.T.|.u+r c.:+            ",
"  E Y t 1 X . l+_.& $ }+;+2+v 7.o.5.%.          ",
"  + $.H b /.J.. i o+] ^ v.i.a ` P C.++@         ",
"  {.I.f / #.k.. t.8.3 x+<+$ 8+7+r.e.Z 6.M.      ",
"    9 { !._ R.&.c % 2 P.]+^.7 8 T %+1+g++       ",
"    L 0 N.!+x p d % f.h m.4 c+j.3+y B - k s+    ",
"    # h+{+0.e y+d.l.#+V A ~ x.2.: 0+~+9+[ (+=.  ",
"      s O.k+g p+$+=  +V.M Q.) *+>.w.q+|+p.3.U   ",
"      C ^+Z.z g.e+R ; ,+&+u.,.W.=+l ).<.#       ",
"        /+' * X.w+} n+j+n u F t+| +.            ",
"        S.@.6 -+Y.J ;.< Q o                     ",
"        i+W r+D K.F.9.                          ",
"                                                ",
"                                                ",
"                                                ",
"                                                "};
