/* XPM */
static const char* kRaiseXPM[] = {
"24 24 257 2",
"  	c None",
". 	c #94A384",
"+ 	c #808F70",
"@ 	c #D0D1CF",
"# 	c #EDEDED",
"$ 	c #6A7D56",
"% 	c #758962",
"& 	c #2C3E1C",
"* 	c #2D3D1C",
"= 	c #516939",
"- 	c #48642D",
"; 	c #90A37C",
"> 	c #546D3C",
", 	c #979E90",
"' 	c #A4A6A1",
") 	c #405D20",
"! 	c #405D21",
"~ 	c #375819",
"{ 	c #405F1F",
"] 	c #2F3D20",
"^ 	c #607847",
"/ 	c #9BA590",
"( 	c #3C492F",
"_ 	c #6A7E58",
": 	c #939E88",
"< 	c #869675",
"[ 	c #909E83",
"} 	c #496230",
"| 	c #3D5A1E",
"1 	c #748462",
"2 	c #6D7E5B",
"3 	c #334223",
"4 	c #49632D",
"5 	c #7A9264",
"6 	c #556842",
"7 	c #68804F",
"8 	c #859276",
"9 	c #415E23",
"0 	c #657D4C",
"a 	c #C1C1C1",
"b 	c #6B8054",
"c 	c #D0D0D0",
"d 	c #3B5224",
"e 	c #4E5944",
"f 	c #839375",
"g 	c #718260",
"h 	c #7D8C6E",
"i 	c #6B8450",
"j 	c #687659",
"k 	c #8F9885",
"l 	c #6E8457",
"m 	c #698350",
"n 	c #738462",
"o 	c #3A581C",
"p 	c #324F13",
"q 	c #293A18",
"r 	c #3A5121",
"s 	c #416022",
"t 	c #505A44",
"u 	c #283914",
"v 	c #506839",
"w 	c #637452",
"x 	c #2A3B18",
"y 	c #324323",
"z 	c #58713D",
"A 	c #375617",
"B 	c #728063",
"C 	c #7C8F67",
"D 	c #9EA399",
"E 	c #9EA994",
"F 	c #3F5D1F",
"G 	c #CBD3C2",
"H 	c #A6B19C",
"I 	c #B3B7AF",
"J 	c #99A989",
"K 	c #829073",
"L 	c #CDCDCC",
"M 	c #596B48",
"N 	c #828F73",
"O 	c #8D9E79",
"P 	c #879875",
"Q 	c #697B55",
"R 	c #4F6636",
"S 	c #7F926C",
"T 	c #45612B",
"U 	c #7F8C73",
"V 	c #516B33",
"W 	c #737D69",
"X 	c #8D9287",
"Y 	c #798869",
"Z 	c #798A68",
"` 	c #718160",
" .	c #61724E",
"..	c #ECECEC",
"+.	c #7E8F6E",
"@.	c #56703E",
"#.	c #708955",
"$.	c #47533C",
"%.	c #060606",
"&.	c #4C6634",
"*.	c #B1B2B1",
"=.	c #AFB2AD",
"-.	c #F6F6F6",
";.	c #6C7A61",
">.	c #3A492E",
",.	c #546A3F",
"'.	c #6C795F",
").	c #445E28",
"!.	c #C5C5C4",
"~.	c #304A14",
"{.	c #4F6339",
"].	c #283919",
"^.	c #395719",
"/.	c #3D4B2E",
"(.	c #526B38",
"_.	c #7C8E68",
":.	c #45503A",
"<.	c #B2B3B1",
"[.	c #6E815B",
"}.	c #253514",
"|.	c #213110",
"1.	c #798F62",
"2.	c #758861",
"3.	c #637451",
"4.	c #5C6E49",
"5.	c #2A3A18",
"6.	c #4C6135",
"7.	c #446128",
"8.	c #3F5B23",
"9.	c #798A67",
"0.	c #96A884",
"a.	c #92A283",
"b.	c #FCFCFD",
"c.	c #7C8572",
"d.	c #273817",
"e.	c #405A24",
"f.	c #536E37",
"g.	c #435E26",
"h.	c #445F26",
"i.	c #9EAA93",
"j.	c #9FAE90",
"k.	c #ADAFAB",
"l.	c #97A785",
"m.	c #5E7646",
"n.	c #828E77",
"o.	c #A7B29B",
"p.	c #A6B498",
"q.	c #2C3C1A",
"r.	c #5D783E",
"s.	c #82976D",
"t.	c #9CAD8B",
"u.	c #627351",
"v.	c #657455",
"w.	c #8B967F",
"x.	c #8F9C83",
"y.	c #989C95",
"z.	c #D8D8D8",
"A.	c #596C48",
"B.	c #47642B",
"C.	c #8B9B7D",
"D.	c #ACB89F",
"E.	c #859870",
"F.	c #939B8C",
"G.	c #344F1A",
"H.	c #4D6932",
"I.	c #9CA394",
"J.	c #4F603D",
"K.	c #7F936A",
"L.	c #7F956D",
"M.	c #243412",
"N.	c #ABACA9",
"O.	c #76806C",
"P.	c #88957A",
"Q.	c #778468",
"R.	c #506D33",
"S.	c #707C64",
"T.	c #BDBDBC",
"U.	c #8B9283",
"V.	c #424E38",
"W.	c #3F5C24",
"X.	c #E8E8E8",
"Y.	c #7A886B",
"Z.	c #8DA078",
"`.	c #8EA07C",
" +	c #3F5926",
".+	c #B8C4AC",
"++	c #9CA09A",
"@+	c #60764A",
"#+	c #4B682D",
"$+	c #7D8E6D",
"%+	c #7D8F6B",
"&+	c #56703C",
"*+	c #78905E",
"=+	c #57733C",
"-+	c #63794B",
";+	c #708859",
">+	c #ADB0AB",
",+	c #7F8E70",
"'+	c #171816",
")+	c #4D6435",
"!+	c #6C8552",
"~+	c #868C80",
"{+	c #839074",
"]+	c #AEB0AC",
"^+	c #80916F",
"/+	c #39551D",
"(+	c #F7F7F7",
"_+	c #576C42",
":+	c #606F51",
"<+	c #6F7A63",
"[+	c #566F3D",
"}+	c #6C7D5A",
"|+	c #849671",
"1+	c #D1D1D1",
"2+	c #6C7A5C",
"3+	c #6B7F56",
"4+	c #6D8157",
"5+	c #465F2C",
"6+	c #C6C6C5",
"7+	c #C0C2C0",
"8+	c #A3B095",
"9+	c #4D6039",
"0+	c #5F724B",
"a+	c #5D704C",
"b+	c #607746",
"c+	c #38541B",
"d+	c #ADB4A6",
"e+	c #3C4A2D",
"f+	c #C0C1BF",
"g+	c #39591C",
"h+	c #344424",
"i+	c #8F9984",
"j+	c #677854",
"k+	c #7C8F69",
"l+	c #445239",
"m+	c #B2B3B0",
"n+	c #C5C6C3",
"o+	c #6D815A",
"p+	c #3E5B21",
"q+	c #263617",
"r+	c #748366",
"s+	c #283917",
"t+	c #233312",
"u+	c #798E62",
"v+	c #BEC0BD",
"w+	c #758860",
"x+	c #3C591F",
"y+	c #6D7F5B",
"z+	c #5A6F46",
"A+	c #5C6E48",
"B+	c #496430",
"C+	c #3B581D",
"D+	c #2A3B19",
"E+	c #556D3C",
"F+	c #48632D",
"G+	c #000000",
"H+	c #FFFFFF",
"                                                ",
"                                                ",
"                                                ",
"                                                ",
"                      # @ >+, f+                ",
"            ..T.++O.:+a+h B+| z+*.              ",
"    (+L y.<+9+6.n.U u.4.Q.i+{+$ 1 ]+            ",
"=.c.A.} _  +w '.J.v.k 2+M 6 Y._+p R 7+          ",
"W ~ c+)+w.B 9+d {.K i.H +.+ Y : P.o++ m+        ",
"<.$ Q 0+A+ .r g [ < |.V.L.0 @.- $+&.^.> N.      ",
"-.j /+~.G.N 8 f % M.u y l+5 m f.z k+A p+3+a     ",
"  ~+e.,.n x.Z @+q+D+q.& e h+#.r.V P |+%+% y+c   ",
"  !.,+[.v T C.].d.5.* x e+t /.l.O C . h.x+! 3.z.",
"    ;.g+W.7.b a.1.0.>.$..+G t.i R.) l 4+o F { r+",
"    ' 7.C+4 -+o.p.D.:.( ; Z.J =+H.B.s E.b+j+F.n+",
"    X.2 2.^+_.w+8+K.}.q s.;+`.7 #+&+` D 1+      ",
"      X [+g.).(.S . t+s+*+!+u+/ I.@             ",
"      6+= 8.5+E+^ j.3 ] E I z.b.                ",
"        S.9 F+m.9.d+'+%.                        ",
"        k.}+U.v+#   G+G+                        ",
"                    G+G+                        ",
"                    G+G+                        ",
"                    G+G+                        ",
"                                                "};
