/* XPM */
static const char* kSize2XPM[] = {
"24 24 24 1",
" 	c None",
".	c #000000",
"+	c #505050",
"@	c #303030",
"#	c #343434",
"$	c #777777",
"%	c #707170",
"&	c #2E2E2E",
"*	c #393939",
"=	c #333333",
"-	c #606160",
";	c #323232",
">	c #414241",
",	c #3C3C3C",
"'	c #2F2F2F",
")	c #8C8D8C",
"!	c #313131",
"~	c #2D2D2D",
"{	c #424342",
"]	c #999A99",
"^	c #818181",
"/	c #525252",
"(	c #5A5B5A",
"_	c #868686",
"                        ",
"                        ",
"         .....          ",
"        .     .         ",
"         .... .         ",
"        .     .         ",
"        . ....          ",
"        .     .         ",
"         .....          ",
"                        ",
"          +@#$          ",
"         %&*#=          ",
"         -;>,')         ",
"          !@~{]         ",
"          ^/(_          ",
"                        ",
"                        ",
"                        ",
"                        ",
"                        ",
"                        ",
"                        ",
"                        ",
"                        "};
