/* XPM */
static const char* kManualXPM[] = {
"16 16 123 2",
"  	c None",
". 	c #F9F9F9",
"+ 	c #ECECEC",
"@ 	c #005F00",
"# 	c #E5E5E5",
"$ 	c #1E1E1E",
"% 	c #F8F8F8",
"& 	c #C0BFBF",
"* 	c #E6E6E6",
"= 	c #FEFEFE",
"- 	c #F3F3F3",
"; 	c #F4F4F4",
"> 	c #FDFDFD",
", 	c #C1BFBF",
"' 	c #060606",
") 	c #309324",
"! 	c #A8AAA8",
"~ 	c #808080",
"{ 	c #868686",
"] 	c #DBEDD9",
"^ 	c #CBCBCB",
"/ 	c #82CA7A",
"( 	c #184218",
"_ 	c #E1E1E1",
": 	c #536A4F",
"< 	c #262626",
"[ 	c #0B310B",
"} 	c #489348",
"| 	c #387232",
"1 	c #444444",
"2 	c #DBDADA",
"3 	c #BBBABA",
"4 	c #E4E4E4",
"5 	c #1B411B",
"6 	c #EBEBEB",
"7 	c #C4D0C2",
"8 	c #82B582",
"9 	c #21461B",
"0 	c #222222",
"a 	c #CCCBCB",
"b 	c #6A7669",
"c 	c #1D4417",
"d 	c #DFDFDF",
"e 	c #BEBDBD",
"f 	c #606B60",
"g 	c #005D00",
"h 	c #AFD4AB",
"i 	c #D2D1D1",
"j 	c #B3B1B1",
"k 	c #88CC82",
"l 	c #E8E8E8",
"m 	c #88CC80",
"n 	c #19740F",
"o 	c #2E5029",
"p 	c #8AD082",
"q 	c #1D4816",
"r 	c #386E30",
"s 	c #CFCECE",
"t 	c #B6B4B4",
"u 	c #D8D9D9",
"v 	c #5A9F5A",
"w 	c #0B0B0B",
"x 	c #629B62",
"y 	c #0E0E0E",
"z 	c #536951",
"A 	c #847484",
"B 	c #006500",
"C 	c #8A708A",
"D 	c #B1AFAF",
"E 	c #5D995D",
"F 	c #252525",
"G 	c #3E7438",
"H 	c #284425",
"I 	c #063B06",
"J 	c #F6F6F6",
"K 	c #EBEAEA",
"L 	c #C6C5C5",
"M 	c #B9B8B8",
"N 	c #4C934C",
"O 	c #E5E3E5",
"P 	c #E3E3E3",
"Q 	c #B6BDB4",
"R 	c #E9E9E9",
"S 	c #93BD93",
"T 	c #216E19",
"U 	c #C5C4C4",
"V 	c #E3E2E2",
"W 	c #015300",
"X 	c #B8B6B6",
"Y 	c #284623",
"Z 	c #23421F",
"` 	c #2A7421",
" .	c #005700",
"..	c #EEEEEE",
"+.	c #BCBABA",
"@.	c #E5E3E3",
"#.	c #21311D",
"$.	c #9B9F9B",
"%.	c #929D92",
"&.	c #D6D6D6",
"*.	c #1C401C",
"=.	c #4F984F",
"-.	c #80CC7A",
";.	c #1F421F",
">.	c #0F3E0F",
",.	c #B5B3B3",
"'.	c #246E1D",
").	c #86CC7C",
"!.	c #F1F1F1",
"~.	c #E1FFDD",
"{.	c #8E868C",
"].	c #C3C2C2",
"^.	c #55AB4B",
"/.	c #E7E3E7",
"(.	c #EDECEC",
"_.	c #D5D7D5",
":.	c #384D37",
"<.	c #D8D8D8",
"[.	c #1F4619",
"}.	c #274223",
"|.	c #0F0F0F",
"1.	c #FFFFFF",
"2.	c #FFFFFF",
"                                ",
"  1 ' |.|.|.|.|.|.|.|.y w ~     ",
"  F {.O /.&.<.<.<.<.<.<.u @.{   ",
"x 0 A $.] 1.1.1.1.1.1.1.1.1.:.  ",
"N [ : W -.1.1.. > 1.1.1.1.1.Z   ",
"=.>.` B k 1.- X D j t ,.e 1.}.  ",
"} ;.|  ./ 1.1.1.R 2 i P % 1.}.  ",
"  5 n ) ~.1.= _ * 4 d * 6 . }.  ",
"  < z 7 1.1.1.s , ^ & L a > }.  ",
"E $ C b h 1.1.J # - K + + 1.}.  ",
"} I r g ).1.1.+ ; 1.1.1.1.1.}.  ",
"v ( G @ p 1.1.U & +.].3 M 1.}.  ",
"} *.'.@ m 1.1...l # (.!.V 1.H   ",
"  f T ^.1.1.1.1.1.1.1.1.1.1.Y   ",
"      #.o c [.[.[.[.[.[.9 q $   ",
"                                "};
