/* XPM */
static const char* kOpenFileXPM[] = {
"16 16 178 2",
"  	c None",
". 	c #FFFF72",
"+ 	c #FFFF71",
"@ 	c #FFFFA3",
"# 	c #FFFF7B",
"$ 	c #B9B9B4",
"% 	c #FFFF3C",
"& 	c #00A900",
"* 	c #FFFFA7",
"= 	c #656B00",
"- 	c #FFFF78",
"; 	c #FFF593",
"> 	c #FFFFA1",
", 	c #0CA718",
"' 	c #585833",
") 	c #FFFF0C",
"! 	c #C5C70F",
"~ 	c #AC7E00",
"{ 	c #A1A09D",
"] 	c #FBFBFF",
"^ 	c #F0F257",
"/ 	c #ACADB4",
"( 	c #AC6D00",
"_ 	c #A4C6A4",
": 	c #6B623B",
"< 	c #FFD236",
"[ 	c #8E8D49",
"} 	c #EFF032",
"| 	c #E9AA00",
"1 	c #FFFF6E",
"2 	c #584800",
"3 	c #3EA642",
"4 	c #363600",
"5 	c #A9A722",
"6 	c #FFEC75",
"7 	c #938B1B",
"8 	c #FFFF36",
"9 	c #B3A99A",
"0 	c #FFFF32",
"a 	c #FFD645",
"b 	c #FFFF8B",
"c 	c #575700",
"d 	c #C3C3BF",
"e 	c #5B3500",
"f 	c #00FF00",
"g 	c #8B8B1B",
"h 	c #F3BD05",
"i 	c #A097A0",
"j 	c #FFF687",
"k 	c #020C00",
"l 	c #E5A700",
"m 	c #646200",
"n 	c #7B7049",
"o 	c #FFFF8A",
"p 	c #EEF26B",
"q 	c #1D3E1D",
"r 	c #CCCF10",
"s 	c #7E6B29",
"t 	c #EEEEE9",
"u 	c #008D00",
"v 	c #0CFF16",
"w 	c #FFCC1B",
"x 	c #FFFFA9",
"y 	c #F3BC02",
"z 	c #938A16",
"A 	c #EBEBEB",
"B 	c #918D1B",
"C 	c #CACAC9",
"D 	c #ACAD00",
"E 	c #FFF283",
"F 	c #676A00",
"G 	c #F6C036",
"H 	c #FFFFFF",
"I 	c #627413",
"J 	c #B19000",
"K 	c #72622F",
"L 	c #EBA300",
"M 	c #484B00",
"N 	c #C9C9C5",
"O 	c #6B6E00",
"P 	c #D39400",
"Q 	c #FFE25E",
"R 	c #FFE36D",
"S 	c #998D62",
"T 	c #BCAD8B",
"U 	c #414500",
"V 	c #5B512E",
"W 	c #FFEE85",
"X 	c #206A00",
"Y 	c #B3B3B0",
"Z 	c #009000",
"` 	c #006B00",
" .	c #FFEC77",
"..	c #A08000",
"+.	c #152F00",
"@.	c #B37D00",
"#.	c #B78000",
"$.	c #FFFFA4",
"%.	c #D9D8D3",
"&.	c #514425",
"*.	c #6B5F3B",
"=.	c #62572C",
"-.	c #357D42",
";.	c #745F1F",
">.	c #908E00",
",.	c #5C6100",
"'.	c #91870D",
").	c #A0A7A0",
"!.	c #AAAAA4",
"~.	c #FFFF07",
"{.	c #FFE054",
"].	c #624400",
"^.	c #5A5E00",
"/.	c #CAC900",
"(.	c #464B00",
"_.	c #FFF3FF",
":.	c #75752B",
"<.	c #D9DCD9",
"[.	c #FFFFA6",
"}.	c #C38700",
"|.	c #2F3900",
"1.	c #FCFEFF",
"2.	c #545800",
"3.	c #908819",
"4.	c #483000",
"5.	c #6A540D",
"6.	c #FFD348",
"7.	c #C0C0BC",
"8.	c #FFFF44",
"9.	c #745F00",
"0.	c #FFFF49",
"a.	c #83784C",
"b.	c #B07500",
"c.	c #9B99A4",
"d.	c #F5F5F5",
"e.	c #FFFF5F",
"f.	c #FCCC2E",
"g.	c #CCB4CC",
"h.	c #D8AF30",
"i.	c #12AC12",
"j.	c #B1B38E",
"k.	c #FEF3FC",
"l.	c #887D00",
"m.	c #EFCF68",
"n.	c #938B19",
"o.	c #FFFFC6",
"p.	c #25FF25",
"q.	c #7A5400",
"r.	c #C68100",
"s.	c #C78B00",
"t.	c #FFF38A",
"u.	c #001B00",
"v.	c #007100",
"w.	c #7D6B06",
"x.	c #E2E34C",
"y.	c #005100",
"z.	c #FFFFB0",
"A.	c #FFF9FF",
"B.	c #E8EF15",
"C.	c #CF8D00",
"D.	c #CACAC6",
"E.	c #ADAD94",
"F.	c #F8FF00",
"G.	c #D0CFCF",
"H.	c #FFFF77",
"I.	c #949600",
"J.	c #714400",
"K.	c #BD8800",
"L.	c #D3D3CF",
"M.	c #188D18",
"N.	c #00D000",
"O.	c #FFDC51",
"P.	c #FFFFBC",
"Q.	c #237823",
"R.	c #3F4200",
"S.	c #FFFF3B",
"T.	c #FFFF00",
"U.	c #FFFFFF",
"                                ",
"            -., 3 _ g.M.Q.      ",
"  n V *.: &.+.y.` & i.p.v.i     ",
";.( b.}.s.K.l L r.|.v f N.q     ",
"5.C.| h f.a O.{.G X & u Z u.    ",
"s P y < Q  .E j m.I w.q.4.k     ",
"K #.w 6.R W ; ; t.6 h.J ~ 9.j.  ",
"=.@...l.'.z n.B 7 3.5 x.p ^ /.:.",
"a.J.>.8.H.# - - # b * P.o.z.} [ ",
"  e ! # > @ @ @ > $.[.* x o r   ",
"  ].B.e.. . . . . + + + 1 0.D   ",
"  2 ~.0 % S.S.S.S.S.S.% 8 ) I.  ",
"  m T.T.T.T.T.T.T.T.T.T.T.F.g   ",
"  4 c 2.= = U ^.,.O (.R.M F '   ",
"                                ",
"                                "};
