/* XPM */
static const char* kMinusXPM[] = {
"22 22 8 1",
" 	c None",
".	c #000000",
"+	c #93DFAF",
"@	c #8BDDA5",
"#	c #71AB84",
"$	c #7EAE93",
"%	c #3A9054",
"&	c #337F4B",
"                      ",
"                      ",
"                      ",
"                      ",
"                      ",
"                      ",
"                      ",
" ...................  ",
" .+@@@@@@@@@@@@@@@#.  ",
" .@$$$$$$$$$$$$$$$%.  ",
" .@$$$$$$$$$$$$$$$%.  ",
" .@$$$$$$$$$$$$$$$%.  ",
" .#%%%%%%%%%%%%%%%&.  ",
" ...................  ",
"                      ",
"                      ",
"                      ",
"                      ",
"                      ",
"                      ",
"                      ",
"                      "};
